…
    ## Warning: 37850 parsing failures.
    ##  row             col           expected                 actual                   file
    ## 1580 chronic_disease 1/0/T/F/TRUE/FALSE HIV positive           'latestdata_10Apr.csv'
    ## 1608 chronic_disease 1/0/T/F/TRUE/FALSE hepatitis B, diabetes  'latestdata_10Apr.csv'
    ## 2543 chronic_disease 1/0/T/F/TRUE/FALSE hypertension; diabetes 'latestdata_10Apr.csv'
    ## 4200 chronic_disease 1/0/T/F/TRUE/FALSE diabetes, hypertension 'latestdata_10Apr.csv'
    ## 5585 chronic_disease 1/0/T/F/TRUE/FALSE diabetes               'latestdata_10Apr.csv'
    ## .... ............... .................. ...................... ......................
    ## See problems(...) for more details.

``` r
open_line
```

    ## # A tibble: 266,874 x 33
    ##    ID    age   sex   city  province country latitude longitude geo_resolution
    ##    <chr> <chr> <chr> <chr> <chr>    <chr>      <dbl>     <dbl> <chr>         
    ##  1 000-… 30    male  Chao… Anhui    China       31.6    118.   admin3        
    ##  2 000-… 60-69 fema… What… Washing… United…     48.8   -122.   admin2        
    ##  3 000-… 30    male  Hefe… Anhui    China       31.8    117.   admin2        
    ##  4 000-… 60-69 fema… Pitk… Colorado United…     39.2   -107.   admin2        
    ##  5 000-… 44    male  <NA>  Zurich   Switze…     47.4      8.66 admin1        
    ##  6 000-… 65    fema… Shen… Guangdo… China       22.7    114.   admin2        
    ##  7 000-… <NA>  <NA>  Nant… Jiangsu  China       32.2    121.   admin2        
    ##  8 000-… <NA>  <NA>  <NA>  Hamburg  Germany     53.5     10.0  admin1        
    ##  9 000-… 8-68  <NA>  Xuzh… Jiangsu  China       34.4    118.   admin2        
    ## 10 000-… 8-68  <NA>  Chan… Jiangsu  China       31.6    120.   admin2        
    ## # … with 266,864 more rows, and 24 more variables: date_onset_symptoms <chr>,
    ## #   date_admission_hospital <chr>, date_confirmation <chr>, symptoms <chr>,
    ## #   lives_in_Wuhan <chr>, travel_history_dates <chr>,
    ## #   travel_history_location <chr>, reported_market_exposure <chr>,
    ## #   additional_information <chr>, chronic_disease_binary <chr>,
    ## #   chronic_disease <lgl>, source <chr>, sequence_available <chr>,
    ## #   outcome <chr>, date_death_or_discharge <chr>, notes_for_discussion <chr>,
    ## #   location <chr>, admin3 <chr>, admin2 <chr>, admin1 <chr>,
    ## #   country_new <chr>, admin_id <dbl>, data_moderator_initials <lgl>,
…
